lambdamic,fluxJy,efluxJy,strip
5.24749,0.0654871126126,0.007998,2.0
5.27773,0.0750270360361,0.003574,2.0
5.30797,0.0810033063063,0.005618,2.0
5.33821,0.0766316486487,0.002596,2.0
5.36846,0.077237936937,0.00486,2.0
5.3987,0.0886263558559,0.002851,2.0
5.42894,0.0781393918919,0.003732,2.0
5.45918,0.0648717072072,0.002988,2.0
5.48942,0.0663315855856,0.003617,2.0
5.51967,0.0697049189189,0.003051,2.0
5.54991,0.0728263918919,0.002185,2.0
5.58015,0.0791946981982,0.00366,2.0
5.61039,0.0707727612613,0.002538,2.0
5.64063,0.0731215585586,0.001888,2.0
5.67088,0.0866695945946,0.002541,2.0
5.70112,0.0884223603604,0.0031,2.0
5.73136,0.0931245135135,0.002404,2.0
5.7616,0.0934675450451,0.002348,2.0
5.79184,0.0940658558559,0.002989,2.0
5.82209,0.0930401801802,0.002907,2.0
5.85233,0.0882468558559,0.002913,2.0
5.88257,0.0881522657658,0.003217,2.0
5.91281,0.0926230720721,0.002797,2.0
5.94305,0.0976568603604,0.003018,2.0
5.9733,0.0974323513514,0.003767,2.0
6.00354,0.0962038198199,0.003411,2.0
6.03378,0.102183509009,0.008746,2.0
6.06402,0.116811923423,0.004454,2.0
6.09426,0.12273690991,0.008927,2.0
6.12451,0.125994,0.00424,2.0
6.15475,0.129815211712,0.004515,2.0
6.18499,0.146386711712,0.011309,2.0
6.21523,0.181367950451,0.00649,2.0
6.24547,0.245528522523,0.004889,2.0
6.27572,0.285095671171,0.006992,2.0
6.30596,0.273581891892,0.007424,2.0
6.3362,0.241312995496,0.005005,2.0
6.36644,0.20802981982,0.004463,2.0
6.39668,0.184115621622,0.004272,2.0
6.42693,0.166520725225,0.003843,2.0
6.45717,0.156204707207,0.003808,2.0
6.48741,0.14749786036,0.00349,2.0
6.51765,0.140267986487,0.004368,2.0
6.54789,0.138070761261,0.004667,2.0
6.57814,0.138777337838,0.005302,2.0
6.60838,0.138322621622,0.004722,2.0
6.63862,0.138742009009,0.005746,2.0
6.66886,0.144513144144,0.006,2.0
6.6991,0.152064396396,0.00426,2.0
6.72935,0.152547603604,0.00396,2.0
6.75959,0.151648427928,0.004498,2.0
6.78983,0.156034900901,0.006574,2.0
6.82007,0.153356747748,0.00621,2.0
6.85031,0.147642594595,0.005014,2.0
6.88056,0.148299027027,0.004321,2.0
6.9108,0.148583936937,0.004496,2.0
6.94104,0.149525279279,0.003662,2.0
6.97128,0.163039126126,0.0062,2.0
7.00152,0.175127283784,0.0074,2.0
7.03177,0.172257671171,0.016448,2.0
7.06201,0.273545423424,0.010451,2.0
7.09225,0.219518527027,0.008178,2.0
7.12249,0.171903243243,0.006973,2.0
7.15273,0.183715608108,0.006046,2.0
7.18298,0.192237833333,0.008786,2.0
7.21322,0.19734113964,0.006288,2.0
7.24346,0.199295621622,0.009449,2.0
7.2737,0.20278063964,0.01026,2.0
7.30394,0.217504783784,0.005792,2.0
7.33419,0.234810211712,0.008619,2.0
7.36443,0.244216797297,0.006977,2.0
7.39467,0.255002346847,0.007487,2.0
7.42491,0.272971045045,0.010817,2.0
7.45515,0.261643027027,0.007252,3.0
7.45515,0.283156004505,0.019671,2.0
7.4854,0.303587463964,0.00764,2.0
7.51564,0.321728247748,0.007413,3.0
7.57612,0.329733076577,0.0123,1.0
7.57612,0.374083292793,0.007793,3.0
7.6366,0.371533918919,0.005635,1.0
7.6366,0.43247159009,0.01187,3.0
7.69709,0.47567304955,0.009655,3.0
7.69709,0.423591518018,0.009602,1.0
7.75757,0.464889779279,0.007168,3.0
7.75757,0.433414072072,0.016343,1.0
7.81805,0.436024986487,0.007962,3.0
7.81805,0.402730414415,0.005506,1.0
7.87854,0.432391815315,0.0064,3.0
7.87854,0.398592382883,0.006373,1.0
7.93902,0.413776941442,0.005751,3.0
7.93902,0.392850878379,0.007108,1.0
7.99951,0.365390121622,0.007795,1.0
7.99951,0.377403063063,0.010334,3.0
8.05999,0.333745747748,0.007558,3.0
8.05999,0.330296058559,0.011342,1.0
8.12047,0.301377702703,0.007729,3.0
8.12047,0.304287202703,0.013386,1.0
8.18096,0.271543076577,0.005238,3.0
8.18096,0.275158013514,0.012905,1.0
8.24144,0.257004693694,0.004708,3.0
8.24144,0.260548972973,0.011902,1.0
8.30192,0.258571698198,0.004846,3.0
8.30192,0.261278342342,0.027487,1.0
8.36241,0.251520747748,0.004104,3.0
8.36241,0.261123351351,0.032204,1.0
8.42289,0.260203662162,0.00857,3.0
8.42289,0.264234567568,0.01187,1.0
8.48337,0.221136815315,0.060468,3.0
8.48337,0.260658378378,0.010332,1.0
8.54386,0.266148022523,0.010303,1.0
8.60434,0.284321855856,0.01112,1.0
8.66483,0.295654432433,0.010139,1.0
8.72531,0.294566076577,0.006562,1.0
8.78579,0.270566405405,0.004349,1.0
8.84628,0.231066495496,0.004404,1.0
8.90676,0.201160072072,0.002931,1.0
8.96724,0.176922216216,0.002687,1.0
9.02773,0.166994815315,0.003854,1.0
9.08821,0.16837263964,0.003952,1.0
9.14869,0.152734504505,0.00253,1.0
9.20918,0.134568648649,0.003081,1.0
9.26966,0.131836932432,0.002416,1.0
9.33015,0.135535063063,0.003997,1.0
9.39063,0.130473923423,0.004417,1.0
9.45111,0.127393477478,0.002812,1.0
9.5116,0.127760441441,0.003978,1.0
9.57208,0.130281324324,0.00389,1.0
9.63256,0.134488873874,0.00795,1.0
9.69305,0.13225745946,0.003181,1.0
9.75353,0.146056216216,0.003812,1.0
9.81401,0.146124594595,0.004446,1.0
9.8745,0.136997220721,0.008011,1.0
9.93498,0.134139004505,0.006457,1.0
9.99547,0.134071765766,0.00308,1.0
10.05595,0.137271873874,0.00406,1.0
10.11643,0.143471513514,0.006845,1.0
10.17692,0.148146315315,0.004371,1.0
10.2374,0.147377058559,0.008502,1.0
10.29788,0.148836936937,0.004305,1.0
10.35837,0.15635513964,0.00818,1.0
10.41885,0.159192842342,0.003619,1.0
10.47933,0.161855040541,0.007179,1.0
10.53982,0.173656009009,0.00605,1.0
10.6003,0.209464626126,0.009636,1.0
10.66079,0.230985581081,0.003848,1.0
10.72127,0.212452761261,0.01547,1.0
10.78175,0.210109662162,0.005295,1.0
10.84224,0.215809,0.005888,1.0
10.90272,0.217833,0.007022,1.0
10.9632,0.218667216216,0.006132,1.0
11.02369,0.234962923423,0.008559,1.0
11.08417,0.254875846847,0.022436,1.0
11.14465,0.28152518018,0.008834,1.0
11.20514,0.30366268018,0.006724,1.0
11.26562,0.399733162162,0.014801,1.0
11.32611,0.612642918919,0.016274,1.0
11.38659,0.70634636937,0.01679,1.0
11.44707,0.629136923424,0.016471,1.0
11.50756,0.539272918919,0.009026,1.0
11.56804,0.474877581081,0.008858,1.0
11.62852,0.427267995496,0.014813,1.0
11.68901,0.403859797297,0.007241,1.0
11.74949,0.383369076577,0.009169,1.0
11.80997,0.370611950451,0.007446,1.0
11.87046,0.369692261261,0.006695,1.0
11.93094,0.378914225225,0.009752,1.0
11.99143,0.399506373874,0.005904,1.0
12.05191,0.420939576577,0.006345,1.0
12.11239,0.435281941442,0.007737,1.0
12.17288,0.440640527027,0.00869,1.0
12.23336,0.435848342342,0.009383,1.0
12.29384,0.436764612613,0.017016,1.0
12.35433,0.446238436937,0.019972,1.0
12.41481,0.46985290991,0.009069,1.0
12.47529,0.483302936937,0.009038,1.0
12.53578,0.492610373874,0.024546,1.0
12.59626,0.511442918919,0.009119,1.0
12.65675,0.536762292793,0.009028,1.0
12.71723,0.561347738739,0.014452,1.0
12.77771,0.590949878379,0.007098,1.0
12.8382,0.611131756757,0.007334,1.0
12.89868,0.77225172973,0.016952,1.0
12.95916,1.07079628829,0.017664,1.0
13.01965,0.881792752253,0.010248,1.0
13.08013,0.513324463964,0.01464,1.0
13.14061,0.482578126126,0.008333,1.0
13.2011,0.479852108108,0.010993,1.0
13.26158,0.483797540541,0.007967,1.0
13.32206,0.486703621622,0.008019,1.0
13.38255,0.487958364865,0.008006,1.0
13.44303,0.489792045045,0.015493,1.0
13.50352,0.491419450451,0.014625,1.0
13.564,0.496403094595,0.014652,1.0
13.62448,0.50426204955,0.008357,1.0
13.68497,0.509674198198,0.012149,1.0
13.74545,0.517578738739,0.010625,1.0
13.80593,0.519059130631,0.008593,1.0
13.86642,0.516505198198,0.00799,1.0
13.9269,0.514111954955,0.006711,1.0
13.98738,0.511558022523,0.00703,1.0
14.06935,0.526398,0.007824,5.0
14.15403,0.539635,0.008822,5.0
14.23871,0.546064,0.007042,5.0
14.32338,0.560887,0.00557,5.0
14.40806,0.586767,0.007557,5.0
14.49274,0.62477,0.007189,5.0
14.57741,0.612655,0.007433,5.0
14.66209,0.570577,0.005508,5.0
14.74677,0.56319,0.005016,5.0
14.83145,0.57442,0.006819,5.0
14.91612,0.590314,0.014608,5.0
15.0008,0.597182,0.006419,5.0
15.08548,0.591948,0.005055,5.0
15.17015,0.608996,0.012928,5.0
15.25483,0.619897,0.005634,5.0
15.33951,0.630597,0.005204,5.0
15.42418,0.631822,0.005592,5.0
15.50886,0.647815,0.045362,5.0
15.59354,0.667158,0.038858,5.0
15.67821,0.787523,0.007071,5.0
15.76289,0.95681,0.008104,5.0
15.84757,0.784592,0.013699,5.0
15.93224,0.719987,0.007268,5.0
16.01692,0.739638,0.005467,5.0
16.101601,0.748085,0.007949,5.0
16.186279,0.763174,0.009232,5.0
16.27095,0.78157,0.008039,5.0
16.355631,0.78634,0.009535,5.0
16.44031,0.819733,0.026322,5.0
16.524981,0.871681,0.046864,5.0
16.609659,0.929189,0.032794,5.0
16.69434,0.956149,0.006778,5.0
16.779011,0.937007,0.007349,5.0
16.863689,0.948259,0.016023,5.0
16.94837,0.959892,0.013136,5.0
17.033039,0.967694,0.00841,5.0
17.11772,0.986443,0.009734,5.0
17.2024,1.058683,0.010027,5.0
17.287069,1.088742,0.012125,5.0
17.37175,1.04702,0.015886,5.0
17.45643,1.043772,0.008271,5.0
17.541109,1.071492,0.017135,5.0
17.62578,1.078378,0.013333,5.0
17.710461,1.060429,0.01156,5.0
17.795139,1.044046,0.013143,5.0
17.87981,1.05344,0.015365,5.0
17.964491,1.066219,0.009477,5.0
18.04917,1.0736,0.009619,5.0
18.133841,1.098866,0.015222,5.0
18.218519,1.086396,0.012444,5.0
18.3032,1.069101,0.013023,5.0
18.387871,1.093883,0.015612,5.0
18.472549,1.09142,0.018001,5.0
18.55723,1.102717,0.014072,5.0
18.641899,1.103788,0.009422,5.0
18.72658,1.109882,0.015966,5.0
18.81126,1.145687,0.0148,5.0
18.895941,1.338708,0.026791,5.0
18.98061,1.463448,0.018166,5.0
19.06529,1.205406,0.014508,5.0
19.149969,1.172259,0.01015,5.0
19.23464,1.177397,0.021975,5.0
19.319321,1.184618,0.012031,5.0
19.403999,1.175871,0.016434,5.0
19.48867,1.20033,0.03156,5.0
19.573351,1.215637,0.019227,5.0
19.65803,1.244077,0.019774,5.0
19.742701,1.255689,0.017512,5.0
19.827379,1.257929,0.02544,5.0
19.91206,1.283917,0.050981,5.0
19.91206,1.319225,0.041315,6.0
19.996731,1.314086,0.014972,5.0
20.081409,1.311659,0.018729,5.0
20.081409,1.348549,0.055338,6.0
20.16609,1.332939,0.013696,5.0
20.250771,1.346692,0.022108,5.0
20.250771,1.33203,0.023745,6.0
20.33544,1.352005,0.030984,5.0
20.42012,1.338699,0.019995,6.0
20.42012,1.402489,0.031506,5.0
20.504801,1.378257,0.016707,5.0
20.58947,1.365979,0.018322,6.0
20.58947,1.37814,0.029611,4.0
20.758829,1.411619,0.019722,4.0
20.758829,1.387599,0.018455,6.0
20.928181,1.423878,0.019437,6.0
20.928181,1.432807,0.015943,4.0
21.09753,1.449123,0.046592,6.0
21.09753,1.47084,0.030452,4.0
21.26689,1.517542,0.026832,4.0
21.26689,1.508288,0.014121,6.0
21.436239,1.509709,0.02409,6.0
21.436239,1.542078,0.020141,4.0
21.6056,1.557908,0.042603,4.0
21.77495,1.587182,0.035086,4.0
21.9443,1.622401,0.02264,4.0
22.113661,1.646556,0.019098,4.0
22.28301,1.68797,0.131725,4.0
22.45236,1.722154,0.038458,4.0
22.621719,1.771935,0.135897,4.0
22.791071,1.810026,0.103947,4.0
22.96043,1.859066,0.023713,4.0
23.12978,1.897899,0.011493,4.0
23.299129,1.899889,0.017079,4.0
23.468491,1.920344,0.019697,4.0
23.63784,1.966835,0.017978,4.0
23.80719,2.00251,0.011516,4.0
23.976549,2.054164,0.010978,4.0
24.145901,2.070783,0.013753,4.0
24.31526,2.110313,0.023773,4.0
24.48461,2.139265,0.061295,4.0
24.653959,2.181732,0.017957,4.0
24.82332,2.184236,0.011727,4.0
24.99267,2.226135,0.012968,4.0
25.16202,2.25265,0.029784,4.0
25.331381,2.268972,0.092221,4.0
25.500731,2.30261,0.014919,4.0
25.67009,2.367596,0.013735,4.0
25.839439,2.396601,0.013248,4.0
26.008789,2.491372,0.020284,4.0
26.17815,2.745292,0.043569,4.0
26.3475,2.663119,0.022347,4.0
26.51685,2.53214,0.020517,4.0
26.686211,2.584959,0.03128,4.0
26.85556,2.643888,0.062757,4.0
27.02492,2.633261,0.03372,4.0
27.194269,2.626388,0.015335,4.0
27.363621,2.694672,0.041067,4.0
27.53298,2.762729,0.044187,4.0
27.70233,2.794167,0.020457,4.0
27.871679,2.820612,0.023387,4.0
28.04104,2.845733,0.037337,4.0
28.21039,2.905506,0.055855,4.0
28.379749,2.92952,0.020994,4.0
28.549101,2.949674,0.09967,4.0
28.718451,3.004861,0.041442,4.0
28.88781,3.004775,0.026823,4.0
29.057159,3.018224,0.026981,4.0
29.226509,3.034145,0.029502,4.0
29.39587,3.109256,0.046586,4.0
29.56522,3.126008,0.02807,4.0
29.734579,3.182909,0.030924,4.0
29.903931,3.236423,0.034562,4.0
30.07328,3.270858,0.062101,4.0
30.24264,3.28366,0.024719,4.0
30.411989,3.309745,0.030405,4.0
30.581341,3.308981,0.046587,4.0
30.7507,3.418097,0.050994,4.0
30.92005,3.456307,0.027125,4.0
31.089411,3.484042,0.019156,4.0
31.25876,3.514466,0.078782,4.0
31.42811,3.58494,0.020034,4.0
31.597469,3.640652,0.026848,4.0
31.766821,3.691088,0.140448,4.0
31.936171,3.691536,0.044289,4.0
32.10553,3.763555,0.030231,4.0
32.274879,3.83593,0.033898,4.0
32.444241,3.920742,0.043747,4.0
32.61359,3.993772,0.071118,4.0
32.78294,4.025306,0.056882,4.0
32.952301,4.105471,0.04558,4.0
33.121651,4.164992,0.036016,4.0
33.291,4.306392,0.066181,4.0
33.460361,4.333814,0.067427,4.0
33.629711,4.434855,0.04772,4.0
33.799068,4.760317,0.116973,4.0
33.968418,4.822434,0.047125,4.0
34.137772,4.500048,0.046277,4.0
34.307129,4.516351,0.083625,4.0
34.476479,4.532302,0.148695,4.0
34.645828,4.566648,0.048975,4.0
34.815189,4.5379,0.037134,4.0
34.984539,4.818895,0.129914,4.0
35.1539,5.395516,0.116489,4.0
35.32325,5.149238,0.062115,4.0
35.492599,4.842142,0.051879,4.0
35.661961,4.885323,0.093539,4.0
35.83131,4.645353,0.134203,4.0
36.00066,4.700453,0.095876,4.0
36.170021,4.800901,0.276636,4.0
36.339371,4.790581,0.115574,4.0
36.508732,4.551834,0.097313,4.0
36.678082,4.781668,0.08158,4.0
36.847431,4.837495,0.102715,4.0
37.016788,4.913426,0.092364,4.0
37.186138,5.344526,0.225232,4.0
37.355492,4.896201,0.274952,4.0
